{
  "project_info": {
    "project_number": "982058988478",
    "project_id": "snagging-26130",
    "storage_bucket": "snagging-26130.appspot.com"
  },
  "client": [
    {
      "client_info": {
        "mobilesdk_app_id": "1:982058988478:android:aaedbb0ffb3c6f2067ffef",
        "android_client_info": {
          "package_name": "com.snagging"
        }
      },
      "oauth_client": [
        {
          "client_id": "982058988478-1pfcbrckiv080p33gcr95slq483jkuej.apps.googleusercontent.com",
          "client_type": 3
        }
      ],
      "api_key": [
        {
          "current_key": "AIzaSyBxGBC026CCi3EKiHxQD1060ycQN8IVWA0"
        }
      ],
      "services": {
        "appinvite_service": {
          "other_platform_oauth_client": [
            {
              "client_id": "982058988478-1pfcbrckiv080p33gcr95slq483jkuej.apps.googleusercontent.com",
              "client_type": 3
            }
          ]
        }
      }
    }
  ],
  "configuration_version": "1"
}